{
	"info": {
		"_postman_id": "4dc01fc4-223f-4b2c-b357-a80114c31ee8",
		"name": "appointment booking",
		"schema": "https://schema.getpostman.com/json/collection/v2.1.0/collection.json",
		"_exporter_id": "30514417"
	},
	"item": [
		{
			"name": "List User",
			"request": {
				"method": "POST",
				"header": [],
				"body": {
					"mode": "raw",
					"raw": "{\r\n    \"page\":1,\r\n    \"limit\":10,\r\n    \"searchText\":\"inactive\"\r\n}",
					"options": {
						"raw": {
							"language": "json"
						}
					}
				},
				"url": {
					"raw": "http://localhost:3000/api/users/getAllUsers",
					"protocol": "http",
					"host": [
						"localhost"
					],
					"port": "3000",
					"path": [
						"api",
						"users",
						"getAllUsers"
					]
				}
			},
			"response": []
		},
		{
			"name": "Create User",
			"request": {
				"method": "POST",
				"header": [],
				"body": {
					"mode": "raw",
					"raw": "{\r\n  \"fullName\": \"John-Doe\",\r\n  \"email\":\"abc@gmail.com\",\r\n  \"status\":\"active\"\r\n}",
					"options": {
						"raw": {
							"language": "json"
						}
					}
				},
				"url": {
					"raw": "http://localhost:3000/api/users/createUsers",
					"protocol": "http",
					"host": [
						"localhost"
					],
					"port": "3000",
					"path": [
						"api",
						"users",
						"createUsers"
					]
				}
			},
			"response": []
		},
		{
			"name": "Edit User",
			"request": {
				"method": "PUT",
				"header": [],
				"body": {
					"mode": "raw",
					"raw": "{ \r\n  \"status\": \"active\"\r\n}",
					"options": {
						"raw": {
							"language": "json"
						}
					}
				},
				"url": {
					"raw": "http://localhost:3000/api/users/updateUsers/66327b7672cb2a6b997c14f7",
					"protocol": "http",
					"host": [
						"localhost"
					],
					"port": "3000",
					"path": [
						"api",
						"users",
						"updateUsers",
						"66327b7672cb2a6b997c14f7"
					]
				}
			},
			"response": []
		},
		{
			"name": "Create Appointments",
			"request": {
				"method": "POST",
				"header": [],
				"body": {
					"mode": "raw",
					"raw": "{\r\n  \"userId\": \"66327b7672cb2a6b997c14f7\", // The ID of the user for whom the appointment is being created\r\n  \"dateTime\": \"2024-05-20T14:00:00.000Z\" // The date and time of the appointment in ISO 8601 format\r\n}",
					"options": {
						"raw": {
							"language": "json"
						}
					}
				},
				"url": {
					"raw": "http://localhost:3000/api/appointments/create",
					"protocol": "http",
					"host": [
						"localhost"
					],
					"port": "3000",
					"path": [
						"api",
						"appointments",
						"create"
					]
				}
			},
			"response": []
		},
		{
			"name": "Get Appointments",
			"request": {
				"method": "POST",
				"header": [],
				"body": {
					"mode": "raw",
					"raw": "{ \r\n}",
					"options": {
						"raw": {
							"language": "json"
						}
					}
				},
				"url": {
					"raw": "http://localhost:3000/api/appointments",
					"protocol": "http",
					"host": [
						"localhost"
					],
					"port": "3000",
					"path": [
						"api",
						"appointments"
					]
				}
			},
			"response": []
		}
	]
}